…
trolley
```

    ## # A tibble: 290 x 129
    ##    d_nof_added_arg~ d_nof_rated_arg~ d_nof_read_argu~ d_nof_sokrates_~
    ##               <dbl>            <dbl>            <dbl>            <dbl>
    ##  1                0               NA               NA               NA
    ##  2               NA               NA               NA               NA
    ##  3                0                0                0                0
    ##  4                0               NA               NA               NA
    ##  5               NA               NA               NA               NA
    ##  6               NA               NA               NA               NA
    ##  7                0                0                0                0
    ##  8                0               NA               NA               NA
    ##  9                0                6                8                2
    ## 10                0               NA               NA               NA
    ## # ... with 280 more rows, and 125 more variables:
    ## #   d_nof_total_requests <dbl>, general_finisher <dbl>,
    ## #   general_group_control <dbl>, general_group_discussion <dbl>,
    ## #   general_group_information <dbl>, general_random <dbl>,
    ## #   general_token <chr>, general_treatment_group <dbl+lbl>,
    ## #   general_user_id <dbl>, t1_bigfive_bf0010c <dbl>,
    ## #   t1_bigfive_bf0011c <dbl>, t1_bigfive_bf0012c <dbl>,
    ## #   t1_bigfive_bf0013n <dbl>, t1_bigfive_bf0014n <dbl>,
    ## #   t1_bigfive_bf0015n <dbl>, t1_bigfive_bf0016n <dbl>,
…
